{
    "KPlugin": {
        "Authors": [
            {
                "Email": "david.shlemayev@gmail.com",
                "Name": "David Shlemayev",
                "Name[az]": "David Shlemayev",
                "Name[ca]": "David Shlemayev",
                "Name[es]": "David Shlemayev",
                "Name[fr]": "David Shlemayev",
                "Name[it]": "David Shlemayev",
                "Name[nl]": "David Shlemayev",
                "Name[pt]": "David Shlemayev",
                "Name[pt_BR]": "David Shlemayev",
                "Name[sk]": "David Shlemayev",
                "Name[sl]": "David Shlemayev",
                "Name[sv]": "David Shlemayev",
                "Name[uk]": "Давид Шлемаєв",
                "Name[x-test]": "xxDavid Shlemayevxx"
            }
        ],
        "Description": "Show your phone's network signal strength",
        "Description[az]": "Telefonunuzun şəbəkə siqnalı gücü göstərilsin",
        "Description[ca]": "Mostra la intensitat del senyal de xarxa del vostre telèfon",
        "Description[es]": "Muestra la fuerza de la señal de red de su teléfono",
        "Description[fr]": "Afficher la force du signal du réseau pour votre téléphone",
        "Description[it]": "Mostra la potenza del segnale di rete del tuo telefono",
        "Description[nl]": "Signaalsterkte van het netwerk van uw telefoon tonen",
        "Description[pt]": "Mostrar a potência do sinal da rede do seu telefone",
        "Description[pt_BR]": "Mostra a força do sinal de rede do seu celular",
        "Description[sk]": "Zobraziť silu signálu vášho telefónu",
        "Description[sl]": "Pokaži moč omrežnega signala telefona",
        "Description[sv]": "Visa telefonens nätverkssignalstyrka",
        "Description[uk]": "Показ потужності сигналу мережі на вашому телефоні",
        "Description[x-test]": "xxShow your phone's network signal strengthxx",
        "EnabledByDefault": true,
        "Icon": "network-wireless",
        "Id": "kdeconnect_connectivity_report",
        "License": "GPL",
        "Name": "Connectivity monitor",
        "Name[az]": "Bağlantı monitoru",
        "Name[ca]": "Monitor de la connectivitat",
        "Name[es]": "Monitor de conectividad",
        "Name[fr]": "Surveillance de connectivité",
        "Name[it]": "Monitor di connettività",
        "Name[nl]": "Monitor van connectiviteit",
        "Name[pt]": "Monitor de conectividade",
        "Name[pt_BR]": "Monitor de conectividade",
        "Name[sk]": "Monitor pripojenia",
        "Name[sl]": "Nadzornik povezovanja",
        "Name[sv]": "Anslutningsövervakare",
        "Name[uk]": "Монітор з'єднання",
        "Name[x-test]": "xxConnectivity monitorxx",
        "ServiceTypes": [
            "KdeConnect/Plugin"
        ],
        "Version": "1.0"
    },
    "X-KdeConnect-OutgoingPacketType": [
        "kdeconnect.connectivity_report.request"
    ],
    "X-KdeConnect-SupportedPacketType": [
        "kdeconnect.connectivity_report"
    ]
}
